<?xml version="1.0" encoding="UTF-8" standalone="no"?>
<svg
   xmlns:dc="http://purl.org/dc/elements/1.1/"
   xmlns:cc="http://creativecommons.org/ns#"
   xmlns:rdf="http://www.w3.org/1999/02/22-rdf-syntax-ns#"
   xmlns:svg="http://www.w3.org/2000/svg"
   xmlns="http://www.w3.org/2000/svg"
   xmlns:sodipodi="http://sodipodi.sourceforge.net/DTD/sodipodi-0.dtd"
   xmlns:inkscape="http://www.inkscape.org/namespaces/inkscape"
   version="1.1"
   viewBox="0 0 218 249"
   width="218.0pt"
   height="249.0pt"
   id="svg6122"
   inkscape:version="0.91 r13725"
   sodipodi:docname="VAN.svg">
  <metadata
     id="metadata6156">
    <rdf:RDF>
      <cc:Work
         rdf:about="">
        <dc:format>image/svg+xml</dc:format>
        <dc:type
           rdf:resource="http://purl.org/dc/dcmitype/StillImage" />
      </cc:Work>
    </rdf:RDF>
  </metadata>
  <defs
     id="defs6154" />
  <sodipodi:namedview
     pagecolor="#ffffff"
     bordercolor="#666666"
     borderopacity="1"
     objecttolerance="10"
     gridtolerance="10"
     guidetolerance="10"
     inkscape:pageopacity="0"
     inkscape:pageshadow="2"
     inkscape:window-width="1920"
     inkscape:window-height="1017"
     id="namedview6152"
     showgrid="false"
     inkscape:zoom="1.0723033"
     inkscape:cx="-17.129551"
     inkscape:cy="246.90711"
     inkscape:window-x="-8"
     inkscape:window-y="-8"
     inkscape:window-maximized="1"
     inkscape:current-layer="svg6122" />
  <path
     d="M 164.27 0.00 L 169.69 0.00 C 173.51 2.15 180.91 4.16 181.40 9.29 C 182.33 15.14 183.44 20.94 184.46 26.78 C 195.65 27.73 206.81 28.84 218.00 29.76 L 218.00 116.56 C 217.51 126.06 216.47 135.49 216.33 145.00 C 215.69 157.37 214.93 169.79 211.79 181.80 C 209.95 188.63 207.19 195.05 202.15 200.14 C 196.96 205.39 190.17 208.62 183.47 211.46 C 172.92 215.95 162.15 219.95 151.79 224.78 C 139.47 230.47 127.64 236.99 116.07 244.08 C 113.62 245.59 111.36 247.34 109.02 249.00 L 108.94 249.00 C 107.01 247.61 105.14 246.15 103.15 244.84 C 85.46 233.73 66.73 224.34 47.30 216.69 C 39.24 213.46 30.61 210.32 23.17 205.83 C 16.98 202.06 11.89 196.66 9.02 189.96 C 4.55 179.82 3.43 167.58 2.47 156.63 C 1.37 145.79 1.78 134.96 0.00 124.18 L 0.00 29.76 C 42.12 26.43 85.92 21.40 128.00 22.89 C 131.53 22.98 135.31 23.63 138.80 23.02 C 141.08 21.72 143.02 19.71 145.00 17.99 C 151.60 12.02 158.53 6.87 164.27 0.00 Z"
     fill="#d1d3d4"
     id="path6126" />
  <path
     d="M 164.09 5.72 C 168.64 5.08 175.86 6.31 177.75 11.16 C 178.64 17.79 180.41 24.19 180.73 30.88 C 191.38 31.66 201.99 32.90 212.64 33.63 C 212.84 61.09 212.78 88.57 212.68 116.03 C 212.09 135.15 212.32 155.21 208.82 174.03 C 207.37 181.68 204.93 189.73 199.72 195.72 C 195.15 201.03 189.34 204.19 183.06 207.04 C 172.17 211.89 160.79 215.91 149.99 220.99 C 135.77 227.65 121.90 235.22 108.86 243.98 C 90.33 231.73 70.46 221.44 49.76 213.38 C 41.09 209.80 31.62 206.51 23.89 201.16 C 17.06 196.47 12.79 189.38 10.57 181.52 C 7.53 170.78 6.68 159.13 5.97 148.03 C 4.84 132.88 5.47 117.15 4.89 102.00 C 4.68 79.25 4.91 56.49 4.81 33.74 C 38.41 30.98 72.29 27.42 106.00 26.96 C 116.68 26.72 127.39 27.27 138.06 27.60 C 139.64 27.77 141.12 26.19 142.29 25.30 C 149.56 18.76 157.16 12.65 164.09 5.72 Z"
     fill="#252527"
     id="path6130" />
  <path
     d="M 157.05 20.91 C 160.83 21.37 164.55 21.64 168.36 21.79 C 168.50 24.73 168.57 27.53 167.30 30.27 C 164.73 36.14 160.60 41.19 158.14 47.16 C 156.21 51.42 155.66 55.98 155.77 60.62 C 158.53 59.41 161.26 58.11 164.03 56.93 C 171.52 53.70 179.40 52.13 186.60 48.17 C 187.08 49.91 188.04 51.01 186.82 52.72 C 178.78 65.63 166.56 77.15 155.92 87.92 C 146.69 97.17 139.33 109.51 137.57 122.59 C 139.67 119.55 141.26 116.27 143.06 113.05 C 147.18 105.79 152.11 99.10 157.91 93.09 C 150.32 105.00 146.92 119.15 147.54 133.21 C 144.72 132.14 142.23 130.60 139.23 132.24 C 136.06 133.92 134.94 138.70 134.67 141.97 C 134.29 149.68 135.98 157.59 138.44 164.86 C 136.03 163.36 134.06 161.80 131.02 162.11 C 128.74 162.29 127.14 164.19 126.45 166.23 C 125.36 170.88 126.41 175.35 128.51 179.53 C 132.79 188.70 139.91 195.43 147.49 201.90 C 136.66 206.57 125.78 211.74 115.78 218.01 C 117.63 212.90 116.39 207.48 116.23 202.00 C 115.55 194.70 115.11 187.48 115.86 180.17 C 114.83 180.24 113.79 180.32 112.76 180.39 C 112.76 171.26 108.63 163.83 106.72 155.17 C 104.74 146.21 107.37 136.56 113.86 130.03 C 116.09 129.80 118.32 129.52 120.54 129.22 C 120.78 128.75 121.03 128.27 121.28 127.80 C 119.31 127.72 117.34 127.65 115.38 127.51 C 116.98 125.92 118.58 124.34 120.18 122.75 C 118.48 122.79 116.79 122.83 115.09 122.88 C 116.82 120.85 119.27 118.58 119.96 115.95 C 120.94 111.42 120.11 106.43 122.04 102.10 C 123.66 98.52 127.10 95.52 129.76 92.68 C 125.83 94.25 121.87 95.60 117.67 96.30 C 121.28 93.52 124.88 91.37 128.01 88.01 C 132.37 83.43 135.15 78.01 139.33 73.34 C 141.86 70.50 144.85 67.95 147.59 65.30 C 144.48 65.80 141.43 66.44 138.38 67.24 C 140.56 64.59 143.21 61.59 144.31 58.30 C 145.29 55.05 144.75 51.16 144.31 47.84 C 143.67 43.71 143.26 39.56 142.80 35.42 C 143.54 34.58 144.24 33.71 144.93 32.83 C 148.34 31.00 151.16 27.79 155.25 29.63 C 155.14 26.40 154.93 23.57 157.05 20.91 Z"
     fill="#ffffff"
     id="path6132" />
  <path
     d="M 172.40 24.17 C 174.16 31.85 172.08 39.20 172.92 47.09 C 171.48 48.08 170.02 49.04 168.56 50.00 C 167.43 40.71 171.07 33.12 172.40 24.17 Z"
     fill="#d1d3d4"
     id="path6134" />
  <path
     d="M 142.80 35.42 C 143.26 39.56 143.67 43.71 144.31 47.84 C 144.75 51.16 145.29 55.05 144.31 58.30 C 143.21 61.59 140.56 64.59 138.38 67.24 C 141.43 66.44 144.48 65.80 147.59 65.30 C 144.85 67.95 141.86 70.50 139.33 73.34 C 135.15 78.01 132.37 83.43 128.01 88.01 C 124.88 91.37 121.28 93.52 117.67 96.30 C 121.87 95.60 125.83 94.25 129.76 92.68 C 127.10 95.52 123.66 98.52 122.04 102.10 C 120.11 106.43 120.94 111.42 119.96 115.95 C 119.27 118.58 116.82 120.85 115.09 122.88 C 116.79 122.83 118.48 122.79 120.18 122.75 C 118.58 124.34 116.98 125.92 115.38 127.51 C 106.94 126.61 98.48 123.66 92.15 117.84 C 85.17 111.26 82.19 101.68 82.71 92.24 L 81.14 92.33 C 81.19 93.53 81.23 94.74 81.28 95.94 C 78.05 93.35 75.22 92.25 70.99 92.58 C 64.30 93.17 56.90 95.23 51.68 99.65 C 58.75 99.01 65.77 97.87 73.04 98.82 C 74.57 99.13 75.97 100.16 77.34 100.85 C 73.46 104.89 68.40 106.65 63.01 107.58 C 52.68 109.51 41.58 106.56 34.89 98.12 C 46.89 90.20 60.18 84.84 71.83 76.16 C 74.11 77.65 76.41 79.10 78.76 80.49 C 77.26 76.81 75.81 73.12 74.55 69.35 C 84.56 62.85 93.25 55.12 102.00 47.00 C 104.53 44.79 106.44 41.54 110.05 41.27 C 117.40 40.07 125.04 40.27 132.47 39.90 C 129.33 42.18 126.37 44.28 122.54 45.25 C 119.62 45.95 116.75 46.48 114.08 47.93 C 116.31 48.15 118.54 48.29 120.76 48.46 C 118.00 49.16 115.14 49.62 112.43 50.50 C 108.51 51.85 105.78 55.05 103.03 57.98 C 102.83 57.28 102.63 56.59 102.43 55.89 C 100.47 58.73 97.00 62.35 97.58 66.05 C 98.58 69.86 100.90 72.86 103.85 75.39 C 103.31 72.91 102.66 70.45 102.02 68.00 C 114.03 59.87 125.42 50.90 136.21 41.22 C 137.41 40.08 138.51 38.85 139.59 37.61 C 140.68 36.90 141.75 36.18 142.80 35.42 Z"
     fill="#d1d3d4"
     id="path6136" />
  <path
     d="M 89.61 48.55 C 80.44 55.81 71.16 62.76 61.33 69.11 C 62.79 70.09 64.26 71.07 65.73 72.04 C 53.12 81.64 39.34 89.06 25.27 96.25 C 25.25 82.05 25.28 67.84 25.30 53.63 C 46.72 51.64 68.11 49.70 89.61 48.55 Z"
     fill="#a7a9ac"
     id="path6138" />
  <path
     d="M 119.92 51.73 C 114.39 56.70 108.12 60.47 101.84 64.37 C 104.30 61.80 105.99 58.81 107.82 55.79 C 110.73 52.10 115.51 51.53 119.92 51.73 Z"
     fill="#ffffff"
     id="path6140" />
  <path
     d="M 192.50 59.19 C 192.09 67.47 192.32 75.72 192.29 84.00 C 192.36 99.33 192.28 114.67 192.12 130.00 C 191.43 145.50 191.86 159.93 186.95 174.93 C 185.44 178.91 183.13 183.25 179.69 185.88 C 175.70 186.94 171.16 186.65 167.18 185.66 C 160.42 183.84 155.66 178.54 152.38 172.61 C 147.25 163.10 146.05 152.65 146.87 142.00 C 150.19 144.66 153.01 147.77 155.81 150.96 C 155.78 141.32 156.11 131.59 157.39 122.02 C 159.24 109.07 163.19 96.81 171.57 86.55 C 178.11 78.60 185.37 71.72 190.51 62.62 C 191.17 61.48 191.84 60.34 192.50 59.19 Z"
     fill="#a7a9ac"
     id="path6142" />
  <path
     d="M 25.18 100.01 C 28.81 105.71 32.70 109.01 38.67 112.11 C 35.36 118.28 30.85 123.32 25.62 127.93 C 25.33 118.62 25.37 109.32 25.18 100.01 Z"
     fill="#a7a9ac"
     id="path6144" />
  <path
     d="M 44.71 114.20 C 54.59 116.82 64.73 116.77 74.76 115.11 C 70.22 123.81 63.82 132.57 61.19 142.01 C 58.57 151.62 60.67 162.44 66.22 170.64 C 65.61 163.36 65.06 156.19 65.83 148.89 C 66.50 153.93 66.69 158.56 70.19 162.60 C 68.68 156.58 67.50 151.01 69.85 144.98 C 71.28 140.27 74.63 137.59 77.95 134.26 C 73.59 135.53 70.63 138.34 67.59 141.53 C 71.11 133.93 76.83 128.28 81.62 121.56 C 91.83 127.14 101.90 131.47 113.86 130.03 C 107.37 136.56 104.74 146.21 106.72 155.17 C 108.63 163.83 112.76 171.26 112.76 180.39 C 113.79 180.32 114.83 180.24 115.86 180.17 C 115.11 187.48 115.55 194.70 116.23 202.00 C 116.39 207.48 117.63 212.90 115.78 218.01 C 113.32 210.28 110.71 202.94 105.14 196.83 C 107.87 198.39 110.62 199.61 113.66 200.48 C 109.86 196.41 105.86 192.81 103.12 187.86 C 98.24 179.87 96.62 171.07 95.81 161.86 C 91.75 168.74 92.40 176.52 93.87 184.04 C 96.03 194.75 99.19 204.74 98.35 215.86 C 89.61 211.39 82.16 205.21 77.65 196.34 C 74.03 189.05 73.98 181.82 73.30 173.94 C 71.27 178.36 70.10 183.23 69.09 187.97 C 68.05 193.04 69.40 197.71 71.56 202.26 C 66.87 199.78 61.62 198.49 56.99 195.97 C 52.67 191.59 52.97 186.35 51.06 180.98 C 50.78 185.08 50.50 189.18 49.92 193.25 C 45.14 191.17 40.67 188.79 36.96 185.04 C 32.20 180.30 30.19 174.38 28.69 167.99 C 28.18 165.52 27.33 162.57 27.95 160.08 C 31.29 148.58 36.24 137.77 44.81 129.21 C 41.09 130.15 37.63 130.01 33.85 129.50 C 39.04 125.34 41.42 119.76 44.71 114.20 Z"
     fill="#d1d3d4"
     id="path6146" />
</svg>
